%YAML 1.1
%TAG !u! tag:unity3d.com,2011:
--- !u!114 &11400000
MonoBehaviour:
  m_ObjectHideFlags: 0
  m_CorrespondingSourceObject: {fileID: 0}
  m_PrefabInstance: {fileID: 0}
  m_PrefabAsset: {fileID: 0}
  m_GameObject: {fileID: 0}
  m_Enabled: 1
  m_EditorHideFlags: 0
  m_Script: {fileID: 11500000, guid: e09ec82ceecb8574d840a9e76ee3ba7f, type: 3}
  m_Name: Dive2
  m_EditorClassIdentifier: 
  BoolModifier: 0
  IntModifier: 6
  BuyCostModifier: -1
  CastCostModifier: -1
  PlayCostModifier: -1
  FloatModifier: 0
  StringModifier: 
  TriggerKeywordModifier: 0
  AbilityNamesModifier: 0
  ElementModifier: 0
  TypeModifier: 0
  ComplexAmount: {fileID: 0}
  LinkedAbilities: []
  LinkedCards: []
  PlayerTargetModifier: 2
  CardTargets: 08000000
  CardTargetFilters: {fileID: 0}
  RandomFromTargets: 1
  AbilityName: 14
  Trigger: 0
  TriggerPlayerTargetModifier: 0
  PlayerTarget: 2
  Condition: {fileID: 11400000, guid: 0a68d264bb39f074384aa8bf9ef01fe5, type: 2}
  RepeatCounter: 1
