%YAML 1.1
%TAG !u! tag:unity3d.com,2011:
--- !u!1001 &9042457710720727189
PrefabInstance:
  m_ObjectHideFlags: 0
  serializedVersion: 2
  m_Modification:
    m_TransformParent: {fileID: 0}
    m_Modifications:
    - target: {fileID: 588126076120622800, guid: b4349cf7d61b66c4d8fcc5ff2b0f6e05, type: 3}
      propertyPath: Type
      value: 3
      objectReference: {fileID: 0}
    - target: {fileID: 588126076120622800, guid: b4349cf7d61b66c4d8fcc5ff2b0f6e05, type: 3}
      propertyPath: BuyCost
      value: 2
      objectReference: {fileID: 0}
    - target: {fileID: 588126076120622800, guid: b4349cf7d61b66c4d8fcc5ff2b0f6e05, type: 3}
      propertyPath: Element
      value: 3
      objectReference: {fileID: 0}
    - target: {fileID: 588126076120622800, guid: b4349cf7d61b66c4d8fcc5ff2b0f6e05, type: 3}
      propertyPath: CastCost
      value: 2
      objectReference: {fileID: 0}
    - target: {fileID: 588126076120622800, guid: b4349cf7d61b66c4d8fcc5ff2b0f6e05, type: 3}
      propertyPath: CodeName
      value: Glide
      objectReference: {fileID: 0}
    - target: {fileID: 588126076120622800, guid: b4349cf7d61b66c4d8fcc5ff2b0f6e05, type: 3}
      propertyPath: PlayCost
      value: 3
      objectReference: {fileID: 0}
    - target: {fileID: 588126076120622800, guid: b4349cf7d61b66c4d8fcc5ff2b0f6e05, type: 3}
      propertyPath: Abilities.Array.size
      value: 1
      objectReference: {fileID: 0}
    - target: {fileID: 588126076120622800, guid: b4349cf7d61b66c4d8fcc5ff2b0f6e05, type: 3}
      propertyPath: Abilities.Array.data[0]
      value: 
      objectReference: {fileID: 11400000, guid: d5dcaeca150843642a6cb7f8e4e9d894, type: 2}
    - target: {fileID: 588126076120622800, guid: b4349cf7d61b66c4d8fcc5ff2b0f6e05, type: 3}
      propertyPath: Abilities.Array.data[1]
      value: 
      objectReference: {fileID: 11400000, guid: c841fda7d0c515a4b9f1ac0c8da2d5e4, type: 2}
    - target: {fileID: 1961024469518027903, guid: b4349cf7d61b66c4d8fcc5ff2b0f6e05, type: 3}
      propertyPath: m_IsActive
      value: 0
      objectReference: {fileID: 0}
    - target: {fileID: 2261618614141381326, guid: b4349cf7d61b66c4d8fcc5ff2b0f6e05, type: 3}
      propertyPath: m_IsActive
      value: 1
      objectReference: {fileID: 0}
    - target: {fileID: 4272419081315042819, guid: b4349cf7d61b66c4d8fcc5ff2b0f6e05, type: 3}
      propertyPath: m_text
      value: Glide
      objectReference: {fileID: 0}
    - target: {fileID: 4715050837644818439, guid: b4349cf7d61b66c4d8fcc5ff2b0f6e05, type: 3}
      propertyPath: m_Materials.Array.data[0]
      value: 
      objectReference: {fileID: 2100000, guid: 727bd0ddb560e814bb78e0b1b5c949f1, type: 2}
    - target: {fileID: 4858405257681624775, guid: b4349cf7d61b66c4d8fcc5ff2b0f6e05, type: 3}
      propertyPath: m_text
      value: When you play an air card, move the market 1 card forward.
      objectReference: {fileID: 0}
    - target: {fileID: 5285965443169623352, guid: b4349cf7d61b66c4d8fcc5ff2b0f6e05, type: 3}
      propertyPath: m_RootOrder
      value: 0
      objectReference: {fileID: 0}
    - target: {fileID: 5285965443169623352, guid: b4349cf7d61b66c4d8fcc5ff2b0f6e05, type: 3}
      propertyPath: m_LocalPosition.x
      value: 0
      objectReference: {fileID: 0}
    - target: {fileID: 5285965443169623352, guid: b4349cf7d61b66c4d8fcc5ff2b0f6e05, type: 3}
      propertyPath: m_LocalPosition.y
      value: 0
      objectReference: {fileID: 0}
    - target: {fileID: 5285965443169623352, guid: b4349cf7d61b66c4d8fcc5ff2b0f6e05, type: 3}
      propertyPath: m_LocalPosition.z
      value: 0
      objectReference: {fileID: 0}
    - target: {fileID: 5285965443169623352, guid: b4349cf7d61b66c4d8fcc5ff2b0f6e05, type: 3}
      propertyPath: m_LocalRotation.w
      value: 1
      objectReference: {fileID: 0}
    - target: {fileID: 5285965443169623352, guid: b4349cf7d61b66c4d8fcc5ff2b0f6e05, type: 3}
      propertyPath: m_LocalRotation.x
      value: 0
      objectReference: {fileID: 0}
    - target: {fileID: 5285965443169623352, guid: b4349cf7d61b66c4d8fcc5ff2b0f6e05, type: 3}
      propertyPath: m_LocalRotation.y
      value: 0
      objectReference: {fileID: 0}
    - target: {fileID: 5285965443169623352, guid: b4349cf7d61b66c4d8fcc5ff2b0f6e05, type: 3}
      propertyPath: m_LocalRotation.z
      value: 0
      objectReference: {fileID: 0}
    - target: {fileID: 5285965443169623352, guid: b4349cf7d61b66c4d8fcc5ff2b0f6e05, type: 3}
      propertyPath: m_LocalEulerAnglesHint.x
      value: 0
      objectReference: {fileID: 0}
    - target: {fileID: 5285965443169623352, guid: b4349cf7d61b66c4d8fcc5ff2b0f6e05, type: 3}
      propertyPath: m_LocalEulerAnglesHint.y
      value: 0
      objectReference: {fileID: 0}
    - target: {fileID: 5285965443169623352, guid: b4349cf7d61b66c4d8fcc5ff2b0f6e05, type: 3}
      propertyPath: m_LocalEulerAnglesHint.z
      value: 0
      objectReference: {fileID: 0}
    - target: {fileID: 5285965443169623355, guid: b4349cf7d61b66c4d8fcc5ff2b0f6e05, type: 3}
      propertyPath: m_Name
      value: Glide
      objectReference: {fileID: 0}
    - target: {fileID: 5635002994313473751, guid: b4349cf7d61b66c4d8fcc5ff2b0f6e05, type: 3}
      propertyPath: m_Materials.Array.data[0]
      value: 
      objectReference: {fileID: 2100000, guid: f5850150a20a8c4449ac5512fa3663f5, type: 2}
    - target: {fileID: 6544823998151212918, guid: b4349cf7d61b66c4d8fcc5ff2b0f6e05, type: 3}
      propertyPath: m_text
      value: 2
      objectReference: {fileID: 0}
    - target: {fileID: 7439165908216878433, guid: b4349cf7d61b66c4d8fcc5ff2b0f6e05, type: 3}
      propertyPath: m_text
      value: 3
      objectReference: {fileID: 0}
    - target: {fileID: 8721245863600659323, guid: b4349cf7d61b66c4d8fcc5ff2b0f6e05, type: 3}
      propertyPath: m_text
      value: 2
      objectReference: {fileID: 0}
    m_RemovedComponents: []
  m_SourcePrefab: {fileID: 100100000, guid: b4349cf7d61b66c4d8fcc5ff2b0f6e05, type: 3}
