%YAML 1.1
%TAG !u! tag:unity3d.com,2011:
--- !u!21 &2100000
Material:
  serializedVersion: 6
  m_ObjectHideFlags: 0
  m_CorrespondingSourceObject: {fileID: 0}
  m_PrefabInstance: {fileID: 0}
  m_PrefabAsset: {fileID: 0}
  m_Name: BuyableOutline
  m_Shader: {fileID: 4800000, guid: f2dfd30f10e920b4eaa6aeb60201cf7f, type: 3}
  m_ShaderKeywords: ETC1_EXTERNAL_ALPHA
  m_LightmapFlags: 4
  m_EnableInstancingVariants: 0
  m_DoubleSidedGI: 0
  m_CustomRenderQueue: -1
  stringTagMap: {}
  disabledShaderPasses: []
  m_SavedProperties:
    serializedVersion: 3
    m_TexEnvs:
    - _BeamWhite01:
        m_Texture: {fileID: 2800000, guid: 034133cced7821448981f2dfd228f9ee, type: 3}
        m_Scale: {x: 1, y: 1}
        m_Offset: {x: 0, y: 0}
    - _CardModelBlurred:
        m_Texture: {fileID: 2800000, guid: 4849ebe3faeea6444b10b6aaf2db10d9, type: 3}
        m_Scale: {x: 1, y: 1}
        m_Offset: {x: 0, y: 0}
    - _MainTex:
        m_Texture: {fileID: 2800000, guid: c8d56b926c9444249af59b241787c239, type: 3}
        m_Scale: {x: 1, y: 1}
        m_Offset: {x: 0, y: 0}
    - _Noise:
        m_Texture: {fileID: 2800000, guid: e80c3c84ea861404d8a427db8b7abf04, type: 3}
        m_Scale: {x: 1, y: 1}
        m_Offset: {x: 0, y: 0}
    - _blurred:
        m_Texture: {fileID: 2800000, guid: 8ac392ef8c3c2e846a934dfedede00fb, type: 3}
        m_Scale: {x: 1, y: 1}
        m_Offset: {x: 0, y: 0}
    - _border_mask1:
        m_Texture: {fileID: 2800000, guid: e752e976e84d608499039290e0d53c0f, type: 3}
        m_Scale: {x: 1, y: 1}
        m_Offset: {x: 0, y: 0}
    - _fireBG:
        m_Texture: {fileID: 2800000, guid: 9b21924c8bf77f74387d08a607de7a5d, type: 3}
        m_Scale: {x: 1, y: 1}
        m_Offset: {x: 0, y: 0}
    - _wave:
        m_Texture: {fileID: 2800000, guid: fa3108da2fe38a748bfce58b4c9b5410, type: 3}
        m_Scale: {x: 1, y: 1}
        m_Offset: {x: 0, y: 0}
    - _wave3:
        m_Texture: {fileID: 2800000, guid: 2d2fb6cbf6b2a134a95d2dac1bdda490, type: 3}
        m_Scale: {x: 1, y: 1}
        m_Offset: {x: 0, y: 0}
    m_Floats:
    - _ColorMask: 15
    - _Stencil: 0
    - _StencilComp: 8
    - _StencilOp: 0
    - _StencilReadMask: 255
    - _StencilWriteMask: 255
    - _pcg: 0
    - _rand: 0
    - bl2: 0.06666667
    - size: 0.648
    m_Colors:
    - _Color: {r: 1, g: 1, b: 1, a: 1}
    - _Color_ROOT: {r: 1, g: 1, b: 1, a: 1}
    - _Color_color3: {r: 3, g: 2.769, b: 1.569, a: 1}
    - _Color_color4: {r: 2, g: 1.8282691, b: 0, a: 1}
    - _Color_color4copy: {r: 3, g: 0, b: 0, a: 1}
    - _Color_dummy1: {r: 1, g: 1, b: 1, a: 1}
    - _Color_dummy1copy: {r: 1, g: 1, b: 1, a: 1}
    - _Color_image6: {r: 2, g: 1.9726692, b: 0, a: 1}
    - _Color_image6copy: {r: 1, g: 1, b: 1, a: 1}
    - _Color_image7: {r: 1.4980392, g: 1.4901961, b: 0.63529414, a: 1}
  m_BuildTextureStacks: []
