%YAML 1.1
%TAG !u! tag:unity3d.com,2011:
--- !u!1 &2742695889750786500
GameObject:
  m_ObjectHideFlags: 0
  m_CorrespondingSourceObject: {fileID: 0}
  m_PrefabInstance: {fileID: 0}
  m_PrefabAsset: {fileID: 0}
  serializedVersion: 6
  m_Component:
  - component: {fileID: 2742695889750786502}
  - component: {fileID: 2742695889750786503}
  m_Layer: 0
  m_Name: AnimationManager
  m_TagString: Untagged
  m_Icon: {fileID: 0}
  m_NavMeshLayer: 0
  m_StaticEditorFlags: 0
  m_IsActive: 1
--- !u!4 &2742695889750786502
Transform:
  m_ObjectHideFlags: 0
  m_CorrespondingSourceObject: {fileID: 0}
  m_PrefabInstance: {fileID: 0}
  m_PrefabAsset: {fileID: 0}
  m_GameObject: {fileID: 2742695889750786500}
  m_LocalRotation: {x: 0, y: 0, z: 0, w: 1}
  m_LocalPosition: {x: 0, y: 0, z: 0}
  m_LocalScale: {x: 1, y: 1, z: 1}
  m_Children: []
  m_Father: {fileID: 0}
  m_RootOrder: 0
  m_LocalEulerAnglesHint: {x: 0, y: 0, z: 0}
--- !u!114 &2742695889750786503
MonoBehaviour:
  m_ObjectHideFlags: 0
  m_CorrespondingSourceObject: {fileID: 0}
  m_PrefabInstance: {fileID: 0}
  m_PrefabAsset: {fileID: 0}
  m_GameObject: {fileID: 2742695889750786500}
  m_Enabled: 1
  m_EditorHideFlags: 0
  m_Script: {fileID: 11500000, guid: 81706eaeb8839af40a74d64b97c27be3, type: 3}
  m_Name: 
  m_EditorClassIdentifier: 
  MarketStart: {fileID: 0}
  MarketEnd: {fileID: 0}
  MarketSlots:
  - {fileID: 0}
  - {fileID: 0}
  - {fileID: 0}
  - {fileID: 0}
  - {fileID: 0}
  LocalPlayerDrawStart: {fileID: 0}
  OpponentDrawStart: {fileID: 0}
  LocalPlayerHandRoot: {fileID: 0}
  OpponentHandRoot: {fileID: 0}
  PlayedCardRoot: {fileID: 0}
  LocalDiscardPileRoot: {fileID: 0}
  OpponentDiscardPileRoot: {fileID: 0}
  OpponentLifePoints: {fileID: 0}
  LocalPlayerLifePoints: {fileID: 0}
  TopLeft: {fileID: 0}
  TopRight: {fileID: 0}
  BottomLeft: {fileID: 0}
  LightProcParticlesPrefab: {fileID: 5924809858107939623, guid: 7fae7e73ada8d6d4490115213cb584ca, type: 3}
  WaterProcParticlesPrefab: {fileID: 6657192325060280406, guid: 57dcc70f692361749bbbd5c4b62ebaf0, type: 3}
  DarkProcParticlesPrefab: {fileID: 5964084939131135857, guid: d8ae369e8e881814fa2325bf80a97881, type: 3}
  MaxAnimHeight: -10
  MinAnimHeight: -2
