%YAML 1.1
%TAG !u! tag:unity3d.com,2011:
--- !u!29 &1
OcclusionCullingSettings:
  m_ObjectHideFlags: 0
  serializedVersion: 2
  m_OcclusionBakeSettings:
    smallestOccluder: 5
    smallestHole: 0.25
    backfaceThreshold: 100
  m_SceneGUID: 00000000000000000000000000000000
  m_OcclusionCullingData: {fileID: 0}
--- !u!104 &2
RenderSettings:
  m_ObjectHideFlags: 0
  serializedVersion: 9
  m_Fog: 0
  m_FogColor: {r: 0.5, g: 0.5, b: 0.5, a: 1}
  m_FogMode: 3
  m_FogDensity: 0.01
  m_LinearFogStart: 0
  m_LinearFogEnd: 300
  m_AmbientSkyColor: {r: 0.212, g: 0.227, b: 0.259, a: 1}
  m_AmbientEquatorColor: {r: 0.114, g: 0.125, b: 0.133, a: 1}
  m_AmbientGroundColor: {r: 0.047, g: 0.043, b: 0.035, a: 1}
  m_AmbientIntensity: 1
  m_AmbientMode: 0
  m_SubtractiveShadowColor: {r: 0.42, g: 0.478, b: 0.627, a: 1}
  m_SkyboxMaterial: {fileID: 10304, guid: 0000000000000000f000000000000000, type: 0}
  m_HaloStrength: 0.5
  m_FlareStrength: 1
  m_FlareFadeSpeed: 3
  m_HaloTexture: {fileID: 0}
  m_SpotCookie: {fileID: 10001, guid: 0000000000000000e000000000000000, type: 0}
  m_DefaultReflectionMode: 0
  m_DefaultReflectionResolution: 128
  m_ReflectionBounces: 1
  m_ReflectionIntensity: 1
  m_CustomReflection: {fileID: 0}
  m_Sun: {fileID: 0}
  m_IndirectSpecularColor: {r: 0.37311953, g: 0.38074014, b: 0.3587274, a: 1}
  m_UseRadianceAmbientProbe: 0
--- !u!157 &3
LightmapSettings:
  m_ObjectHideFlags: 0
  serializedVersion: 12
  m_GIWorkflowMode: 1
  m_GISettings:
    serializedVersion: 2
    m_BounceScale: 1
    m_IndirectOutputScale: 1
    m_AlbedoBoost: 1
    m_EnvironmentLightingMode: 0
    m_EnableBakedLightmaps: 1
    m_EnableRealtimeLightmaps: 0
  m_LightmapEditorSettings:
    serializedVersion: 12
    m_Resolution: 2
    m_BakeResolution: 40
    m_AtlasSize: 1024
    m_AO: 0
    m_AOMaxDistance: 1
    m_CompAOExponent: 1
    m_CompAOExponentDirect: 0
    m_ExtractAmbientOcclusion: 0
    m_Padding: 2
    m_LightmapParameters: {fileID: 0}
    m_LightmapsBakeMode: 1
    m_TextureCompression: 1
    m_FinalGather: 0
    m_FinalGatherFiltering: 1
    m_FinalGatherRayCount: 256
    m_ReflectionCompression: 2
    m_MixedBakeMode: 2
    m_BakeBackend: 1
    m_PVRSampling: 1
    m_PVRDirectSampleCount: 32
    m_PVRSampleCount: 500
    m_PVRBounces: 2
    m_PVREnvironmentSampleCount: 500
    m_PVREnvironmentReferencePointCount: 2048
    m_PVRFilteringMode: 2
    m_PVRDenoiserTypeDirect: 0
    m_PVRDenoiserTypeIndirect: 0
    m_PVRDenoiserTypeAO: 0
    m_PVRFilterTypeDirect: 0
    m_PVRFilterTypeIndirect: 0
    m_PVRFilterTypeAO: 0
    m_PVREnvironmentMIS: 0
    m_PVRCulling: 1
    m_PVRFilteringGaussRadiusDirect: 1
    m_PVRFilteringGaussRadiusIndirect: 5
    m_PVRFilteringGaussRadiusAO: 2
    m_PVRFilteringAtrousPositionSigmaDirect: 0.5
    m_PVRFilteringAtrousPositionSigmaIndirect: 2
    m_PVRFilteringAtrousPositionSigmaAO: 1
    m_ExportTrainingData: 0
    m_TrainingDataDestination: TrainingData
    m_LightProbeSampleCountMultiplier: 4
  m_LightingDataAsset: {fileID: 0}
  m_LightingSettings: {fileID: 0}
--- !u!196 &4
NavMeshSettings:
  serializedVersion: 2
  m_ObjectHideFlags: 0
  m_BuildSettings:
    serializedVersion: 2
    agentTypeID: 0
    agentRadius: 0.5
    agentHeight: 2
    agentSlope: 45
    agentClimb: 0.4
    ledgeDropHeight: 0
    maxJumpAcrossDistance: 0
    minRegionArea: 2
    manualCellSize: 0
    cellSize: 0.16666667
    manualTileSize: 0
    tileSize: 256
    accuratePlacement: 0
    maxJobWorkers: 0
    preserveTilesOutsideBounds: 0
    debug:
      m_Flags: 0
  m_NavMeshData: {fileID: 0}
--- !u!1 &380037108
GameObject:
  m_ObjectHideFlags: 0
  m_CorrespondingSourceObject: {fileID: 0}
  m_PrefabInstance: {fileID: 0}
  m_PrefabAsset: {fileID: 0}
  serializedVersion: 6
  m_Component:
  - component: {fileID: 380037111}
  - component: {fileID: 380037110}
  - component: {fileID: 380037109}
  m_Layer: 0
  m_Name: EventSystem
  m_TagString: Untagged
  m_Icon: {fileID: 0}
  m_NavMeshLayer: 0
  m_StaticEditorFlags: 0
  m_IsActive: 1
--- !u!114 &380037109
MonoBehaviour:
  m_ObjectHideFlags: 0
  m_CorrespondingSourceObject: {fileID: 0}
  m_PrefabInstance: {fileID: 0}
  m_PrefabAsset: {fileID: 0}
  m_GameObject: {fileID: 380037108}
  m_Enabled: 1
  m_EditorHideFlags: 0
  m_Script: {fileID: 11500000, guid: 4f231c4fb786f3946a6b90b886c48677, type: 3}
  m_Name: 
  m_EditorClassIdentifier: 
  m_HorizontalAxis: Horizontal
  m_VerticalAxis: Vertical
  m_SubmitButton: Submit
  m_CancelButton: Cancel
  m_InputActionsPerSecond: 10
  m_RepeatDelay: 0.5
  m_ForceModuleActive: 0
--- !u!114 &380037110
MonoBehaviour:
  m_ObjectHideFlags: 0
  m_CorrespondingSourceObject: {fileID: 0}
  m_PrefabInstance: {fileID: 0}
  m_PrefabAsset: {fileID: 0}
  m_GameObject: {fileID: 380037108}
  m_Enabled: 1
  m_EditorHideFlags: 0
  m_Script: {fileID: 11500000, guid: 76c392e42b5098c458856cdf6ecaaaa1, type: 3}
  m_Name: 
  m_EditorClassIdentifier: 
  m_FirstSelected: {fileID: 0}
  m_sendNavigationEvents: 1
  m_DragThreshold: 10
--- !u!4 &380037111
Transform:
  m_ObjectHideFlags: 0
  m_CorrespondingSourceObject: {fileID: 0}
  m_PrefabInstance: {fileID: 0}
  m_PrefabAsset: {fileID: 0}
  m_GameObject: {fileID: 380037108}
  m_LocalRotation: {x: 0, y: 0, z: 0, w: 1}
  m_LocalPosition: {x: 0, y: 0, z: 0}
  m_LocalScale: {x: 1, y: 1, z: 1}
  m_Children: []
  m_Father: {fileID: 0}
  m_RootOrder: 1
  m_LocalEulerAnglesHint: {x: 0, y: 0, z: 0}
--- !u!1 &963194225
GameObject:
  m_ObjectHideFlags: 0
  m_CorrespondingSourceObject: {fileID: 0}
  m_PrefabInstance: {fileID: 0}
  m_PrefabAsset: {fileID: 0}
  serializedVersion: 6
  m_Component:
  - component: {fileID: 963194228}
  - component: {fileID: 963194227}
  - component: {fileID: 963194226}
  m_Layer: 0
  m_Name: Main Camera
  m_TagString: MainCamera
  m_Icon: {fileID: 0}
  m_NavMeshLayer: 0
  m_StaticEditorFlags: 0
  m_IsActive: 1
--- !u!81 &963194226
AudioListener:
  m_ObjectHideFlags: 0
  m_CorrespondingSourceObject: {fileID: 0}
  m_PrefabInstance: {fileID: 0}
  m_PrefabAsset: {fileID: 0}
  m_GameObject: {fileID: 963194225}
  m_Enabled: 1
--- !u!20 &963194227
Camera:
  m_ObjectHideFlags: 0
  m_CorrespondingSourceObject: {fileID: 0}
  m_PrefabInstance: {fileID: 0}
  m_PrefabAsset: {fileID: 0}
  m_GameObject: {fileID: 963194225}
  m_Enabled: 1
  serializedVersion: 2
  m_ClearFlags: 1
  m_BackGroundColor: {r: 0.19215687, g: 0.3019608, b: 0.4745098, a: 0}
  m_projectionMatrixMode: 1
  m_GateFitMode: 2
  m_FOVAxisMode: 0
  m_SensorSize: {x: 36, y: 24}
  m_LensShift: {x: 0, y: 0}
  m_FocalLength: 50
  m_NormalizedViewPortRect:
    serializedVersion: 2
    x: 0
    y: 0
    width: 1
    height: 1
  near clip plane: 0.3
  far clip plane: 1000
  field of view: 24.6
  orthographic: 0
  orthographic size: 5
  m_Depth: -1
  m_CullingMask:
    serializedVersion: 2
    m_Bits: 4294967295
  m_RenderingPath: -1
  m_TargetTexture: {fileID: 0}
  m_TargetDisplay: 0
  m_TargetEye: 3
  m_HDR: 1
  m_AllowMSAA: 1
  m_AllowDynamicResolution: 0
  m_ForceIntoRT: 0
  m_OcclusionCulling: 1
  m_StereoConvergence: 10
  m_StereoSeparation: 0.022
--- !u!4 &963194228
Transform:
  m_ObjectHideFlags: 0
  m_CorrespondingSourceObject: {fileID: 0}
  m_PrefabInstance: {fileID: 0}
  m_PrefabAsset: {fileID: 0}
  m_GameObject: {fileID: 963194225}
  m_LocalRotation: {x: 0, y: 0, z: 0, w: 1}
  m_LocalPosition: {x: 0, y: 0, z: -23.6}
  m_LocalScale: {x: 1, y: 1, z: 1}
  m_Children: []
  m_Father: {fileID: 0}
  m_RootOrder: 0
  m_LocalEulerAnglesHint: {x: 0, y: 0, z: 0}
--- !u!114 &1307599992 stripped
MonoBehaviour:
  m_CorrespondingSourceObject: {fileID: 999073343261362440, guid: 6910f2dae21a3e647b444cfbbbba1f71, type: 3}
  m_PrefabInstance: {fileID: 3169708131535667996}
  m_PrefabAsset: {fileID: 0}
  m_GameObject: {fileID: 0}
  m_Enabled: 1
  m_EditorHideFlags: 0
  m_Script: {fileID: 11500000, guid: 5f7201a12d95ffc409449d95f23cf332, type: 3}
  m_Name: 
  m_EditorClassIdentifier: 
--- !u!1001 &3169708131535667996
PrefabInstance:
  m_ObjectHideFlags: 0
  serializedVersion: 2
  m_Modification:
    m_TransformParent: {fileID: 0}
    m_Modifications:
    - target: {fileID: 104924692264130141, guid: 6910f2dae21a3e647b444cfbbbba1f71, type: 3}
      propertyPath: m_IsActive
      value: 1
      objectReference: {fileID: 0}
    - target: {fileID: 1449752083241879958, guid: 6910f2dae21a3e647b444cfbbbba1f71, type: 3}
      propertyPath: m_OnClick.m_PersistentCalls.m_Calls.Array.size
      value: 1
      objectReference: {fileID: 0}
    - target: {fileID: 1449752083241879958, guid: 6910f2dae21a3e647b444cfbbbba1f71, type: 3}
      propertyPath: m_OnClick.m_PersistentCalls.m_Calls.Array.data[0].m_Mode
      value: 1
      objectReference: {fileID: 0}
    - target: {fileID: 1449752083241879958, guid: 6910f2dae21a3e647b444cfbbbba1f71, type: 3}
      propertyPath: m_OnClick.m_PersistentCalls.m_Calls.Array.data[0].m_Target
      value: 
      objectReference: {fileID: 9074618817884897454}
    - target: {fileID: 1449752083241879958, guid: 6910f2dae21a3e647b444cfbbbba1f71, type: 3}
      propertyPath: m_OnClick.m_PersistentCalls.m_Calls.Array.data[0].m_CallState
      value: 2
      objectReference: {fileID: 0}
    - target: {fileID: 1449752083241879958, guid: 6910f2dae21a3e647b444cfbbbba1f71, type: 3}
      propertyPath: m_OnClick.m_PersistentCalls.m_Calls.Array.data[0].m_MethodName
      value: OnCreateLobbyClick
      objectReference: {fileID: 0}
    - target: {fileID: 1449752083241879958, guid: 6910f2dae21a3e647b444cfbbbba1f71, type: 3}
      propertyPath: m_OnClick.m_PersistentCalls.m_Calls.Array.data[0].m_TargetAssemblyTypeName
      value: LobbyManager, Assembly-CSharp
      objectReference: {fileID: 0}
    - target: {fileID: 1449752083241879958, guid: 6910f2dae21a3e647b444cfbbbba1f71, type: 3}
      propertyPath: m_OnClick.m_PersistentCalls.m_Calls.Array.data[0].m_Arguments.m_ObjectArgumentAssemblyTypeName
      value: UnityEngine.Object, UnityEngine
      objectReference: {fileID: 0}
    - target: {fileID: 2219507936168978785, guid: 6910f2dae21a3e647b444cfbbbba1f71, type: 3}
      propertyPath: m_OnClick.m_PersistentCalls.m_Calls.Array.size
      value: 1
      objectReference: {fileID: 0}
    - target: {fileID: 2219507936168978785, guid: 6910f2dae21a3e647b444cfbbbba1f71, type: 3}
      propertyPath: m_OnClick.m_PersistentCalls.m_Calls.Array.data[0].m_Mode
      value: 1
      objectReference: {fileID: 0}
    - target: {fileID: 2219507936168978785, guid: 6910f2dae21a3e647b444cfbbbba1f71, type: 3}
      propertyPath: m_OnClick.m_PersistentCalls.m_Calls.Array.data[0].m_Target
      value: 
      objectReference: {fileID: 9074618817884897454}
    - target: {fileID: 2219507936168978785, guid: 6910f2dae21a3e647b444cfbbbba1f71, type: 3}
      propertyPath: m_OnClick.m_PersistentCalls.m_Calls.Array.data[0].m_CallState
      value: 2
      objectReference: {fileID: 0}
    - target: {fileID: 2219507936168978785, guid: 6910f2dae21a3e647b444cfbbbba1f71, type: 3}
      propertyPath: m_OnClick.m_PersistentCalls.m_Calls.Array.data[0].m_MethodName
      value: OnJoinLobbyClick
      objectReference: {fileID: 0}
    - target: {fileID: 2219507936168978785, guid: 6910f2dae21a3e647b444cfbbbba1f71, type: 3}
      propertyPath: m_OnClick.m_PersistentCalls.m_Calls.Array.data[0].m_TargetAssemblyTypeName
      value: LobbyManager, Assembly-CSharp
      objectReference: {fileID: 0}
    - target: {fileID: 2219507936168978785, guid: 6910f2dae21a3e647b444cfbbbba1f71, type: 3}
      propertyPath: m_OnClick.m_PersistentCalls.m_Calls.Array.data[0].m_Arguments.m_ObjectArgumentAssemblyTypeName
      value: UnityEngine.Object, UnityEngine
      objectReference: {fileID: 0}
    - target: {fileID: 3169708129791857561, guid: 6910f2dae21a3e647b444cfbbbba1f71, type: 3}
      propertyPath: m_Name
      value: UIControllerForMenu
      objectReference: {fileID: 0}
    - target: {fileID: 3169708129791857563, guid: 6910f2dae21a3e647b444cfbbbba1f71, type: 3}
      propertyPath: m_RootOrder
      value: 4
      objectReference: {fileID: 0}
    - target: {fileID: 3169708129791857563, guid: 6910f2dae21a3e647b444cfbbbba1f71, type: 3}
      propertyPath: m_LocalEulerAnglesHint.x
      value: 0
      objectReference: {fileID: 0}
    - target: {fileID: 3169708129791857563, guid: 6910f2dae21a3e647b444cfbbbba1f71, type: 3}
      propertyPath: m_LocalEulerAnglesHint.y
      value: 0
      objectReference: {fileID: 0}
    - target: {fileID: 3169708129791857563, guid: 6910f2dae21a3e647b444cfbbbba1f71, type: 3}
      propertyPath: m_LocalEulerAnglesHint.z
      value: 0
      objectReference: {fileID: 0}
    - target: {fileID: 5941095134798224855, guid: 6910f2dae21a3e647b444cfbbbba1f71, type: 3}
      propertyPath: m_IsActive
      value: 1
      objectReference: {fileID: 0}
    - target: {fileID: 7883754203901027971, guid: 6910f2dae21a3e647b444cfbbbba1f71, type: 3}
      propertyPath: m_OnClick.m_PersistentCalls.m_Calls.Array.size
      value: 1
      objectReference: {fileID: 0}
    - target: {fileID: 7883754203901027971, guid: 6910f2dae21a3e647b444cfbbbba1f71, type: 3}
      propertyPath: m_OnClick.m_PersistentCalls.m_Calls.Array.data[0].m_Mode
      value: 1
      objectReference: {fileID: 0}
    - target: {fileID: 7883754203901027971, guid: 6910f2dae21a3e647b444cfbbbba1f71, type: 3}
      propertyPath: m_OnClick.m_PersistentCalls.m_Calls.Array.data[0].m_Target
      value: 
      objectReference: {fileID: 9074618817884897454}
    - target: {fileID: 7883754203901027971, guid: 6910f2dae21a3e647b444cfbbbba1f71, type: 3}
      propertyPath: m_OnClick.m_PersistentCalls.m_Calls.Array.data[0].m_CallState
      value: 2
      objectReference: {fileID: 0}
    - target: {fileID: 7883754203901027971, guid: 6910f2dae21a3e647b444cfbbbba1f71, type: 3}
      propertyPath: m_OnClick.m_PersistentCalls.m_Calls.Array.data[0].m_MethodName
      value: OnCancelClicked
      objectReference: {fileID: 0}
    - target: {fileID: 7883754203901027971, guid: 6910f2dae21a3e647b444cfbbbba1f71, type: 3}
      propertyPath: m_OnClick.m_PersistentCalls.m_Calls.Array.data[0].m_TargetAssemblyTypeName
      value: LobbyManager, Assembly-CSharp
      objectReference: {fileID: 0}
    - target: {fileID: 7883754203901027971, guid: 6910f2dae21a3e647b444cfbbbba1f71, type: 3}
      propertyPath: m_OnClick.m_PersistentCalls.m_Calls.Array.data[0].m_Arguments.m_ObjectArgumentAssemblyTypeName
      value: UnityEngine.Object, UnityEngine
      objectReference: {fileID: 0}
    - target: {fileID: 9039166694914591348, guid: 6910f2dae21a3e647b444cfbbbba1f71, type: 3}
      propertyPath: m_IsActive
      value: 0
      objectReference: {fileID: 0}
    m_RemovedComponents: []
  m_SourcePrefab: {fileID: 100100000, guid: 6910f2dae21a3e647b444cfbbbba1f71, type: 3}
--- !u!1 &3169708131535667998 stripped
GameObject:
  m_CorrespondingSourceObject: {fileID: 9122388500535108260, guid: 6910f2dae21a3e647b444cfbbbba1f71, type: 3}
  m_PrefabInstance: {fileID: 3169708131535667996}
  m_PrefabAsset: {fileID: 0}
--- !u!1 &3169708131535667999 stripped
GameObject:
  m_CorrespondingSourceObject: {fileID: 5207636080931060369, guid: 6910f2dae21a3e647b444cfbbbba1f71, type: 3}
  m_PrefabInstance: {fileID: 3169708131535667996}
  m_PrefabAsset: {fileID: 0}
--- !u!114 &3169708131535668000 stripped
MonoBehaviour:
  m_CorrespondingSourceObject: {fileID: 5608433094561960101, guid: 6910f2dae21a3e647b444cfbbbba1f71, type: 3}
  m_PrefabInstance: {fileID: 3169708131535667996}
  m_PrefabAsset: {fileID: 0}
  m_GameObject: {fileID: 0}
  m_Enabled: 1
  m_EditorHideFlags: 0
  m_Script: {fileID: 11500000, guid: d199490a83bb2b844b9695cbf13b01ef, type: 3}
  m_Name: 
  m_EditorClassIdentifier: 
--- !u!1 &3169708131535668001 stripped
GameObject:
  m_CorrespondingSourceObject: {fileID: 104924692264130141, guid: 6910f2dae21a3e647b444cfbbbba1f71, type: 3}
  m_PrefabInstance: {fileID: 3169708131535667996}
  m_PrefabAsset: {fileID: 0}
--- !u!114 &3169708131535668002 stripped
MonoBehaviour:
  m_CorrespondingSourceObject: {fileID: 6019438708341541311, guid: 6910f2dae21a3e647b444cfbbbba1f71, type: 3}
  m_PrefabInstance: {fileID: 3169708131535667996}
  m_PrefabAsset: {fileID: 0}
  m_GameObject: {fileID: 0}
  m_Enabled: 1
  m_EditorHideFlags: 0
  m_Script: {fileID: 11500000, guid: 5f7201a12d95ffc409449d95f23cf332, type: 3}
  m_Name: 
  m_EditorClassIdentifier: 
--- !u!1 &3169708131535668003 stripped
GameObject:
  m_CorrespondingSourceObject: {fileID: 551679531404702346, guid: 6910f2dae21a3e647b444cfbbbba1f71, type: 3}
  m_PrefabInstance: {fileID: 3169708131535667996}
  m_PrefabAsset: {fileID: 0}
--- !u!1001 &5823935681270942055
PrefabInstance:
  m_ObjectHideFlags: 0
  serializedVersion: 2
  m_Modification:
    m_TransformParent: {fileID: 0}
    m_Modifications:
    - target: {fileID: 5823935681785906272, guid: 6e0cf9e9c8738c84a894f42b9b381bbf, type: 3}
      propertyPath: m_RootOrder
      value: 2
      objectReference: {fileID: 0}
    - target: {fileID: 5823935681785906272, guid: 6e0cf9e9c8738c84a894f42b9b381bbf, type: 3}
      propertyPath: m_LocalPosition.x
      value: 0
      objectReference: {fileID: 0}
    - target: {fileID: 5823935681785906272, guid: 6e0cf9e9c8738c84a894f42b9b381bbf, type: 3}
      propertyPath: m_LocalPosition.y
      value: 0
      objectReference: {fileID: 0}
    - target: {fileID: 5823935681785906272, guid: 6e0cf9e9c8738c84a894f42b9b381bbf, type: 3}
      propertyPath: m_LocalPosition.z
      value: 0
      objectReference: {fileID: 0}
    - target: {fileID: 5823935681785906272, guid: 6e0cf9e9c8738c84a894f42b9b381bbf, type: 3}
      propertyPath: m_LocalRotation.w
      value: 1
      objectReference: {fileID: 0}
    - target: {fileID: 5823935681785906272, guid: 6e0cf9e9c8738c84a894f42b9b381bbf, type: 3}
      propertyPath: m_LocalRotation.x
      value: 0
      objectReference: {fileID: 0}
    - target: {fileID: 5823935681785906272, guid: 6e0cf9e9c8738c84a894f42b9b381bbf, type: 3}
      propertyPath: m_LocalRotation.y
      value: 0
      objectReference: {fileID: 0}
    - target: {fileID: 5823935681785906272, guid: 6e0cf9e9c8738c84a894f42b9b381bbf, type: 3}
      propertyPath: m_LocalRotation.z
      value: 0
      objectReference: {fileID: 0}
    - target: {fileID: 5823935681785906272, guid: 6e0cf9e9c8738c84a894f42b9b381bbf, type: 3}
      propertyPath: m_LocalEulerAnglesHint.x
      value: 0
      objectReference: {fileID: 0}
    - target: {fileID: 5823935681785906272, guid: 6e0cf9e9c8738c84a894f42b9b381bbf, type: 3}
      propertyPath: m_LocalEulerAnglesHint.y
      value: 0
      objectReference: {fileID: 0}
    - target: {fileID: 5823935681785906272, guid: 6e0cf9e9c8738c84a894f42b9b381bbf, type: 3}
      propertyPath: m_LocalEulerAnglesHint.z
      value: 0
      objectReference: {fileID: 0}
    - target: {fileID: 5823935681785906274, guid: 6e0cf9e9c8738c84a894f42b9b381bbf, type: 3}
      propertyPath: m_Name
      value: MenuController
      objectReference: {fileID: 0}
    m_RemovedComponents: []
  m_SourcePrefab: {fileID: 100100000, guid: 6e0cf9e9c8738c84a894f42b9b381bbf, type: 3}
--- !u!1001 &9074618817884897453
PrefabInstance:
  m_ObjectHideFlags: 0
  serializedVersion: 2
  m_Modification:
    m_TransformParent: {fileID: 0}
    m_Modifications:
    - target: {fileID: 2283221228306222533, guid: 04bd56321d179d24cbbeefdd619f0941, type: 3}
      propertyPath: MainPanel
      value: 
      objectReference: {fileID: 3169708131535668001}
    - target: {fileID: 2283221228306222533, guid: 04bd56321d179d24cbbeefdd619f0941, type: 3}
      propertyPath: JoiningText
      value: 
      objectReference: {fileID: 0}
    - target: {fileID: 2283221228306222533, guid: 04bd56321d179d24cbbeefdd619f0941, type: 3}
      propertyPath: LoadingText
      value: 
      objectReference: {fileID: 1307599992}
    - target: {fileID: 2283221228306222533, guid: 04bd56321d179d24cbbeefdd619f0941, type: 3}
      propertyPath: LoadingPanel
      value: 
      objectReference: {fileID: 3169708131535668003}
    - target: {fileID: 2283221228306222533, guid: 04bd56321d179d24cbbeefdd619f0941, type: 3}
      propertyPath: WaitingPanel
      value: 
      objectReference: {fileID: 3169708131535667999}
    - target: {fileID: 2283221228306222533, guid: 04bd56321d179d24cbbeefdd619f0941, type: 3}
      propertyPath: LobbyKeyDisplayer
      value: 
      objectReference: {fileID: 3169708131535668002}
    - target: {fileID: 2283221228306222533, guid: 04bd56321d179d24cbbeefdd619f0941, type: 3}
      propertyPath: LobbyKeyInputField
      value: 
      objectReference: {fileID: 3169708131535668000}
    - target: {fileID: 2283221228306222533, guid: 04bd56321d179d24cbbeefdd619f0941, type: 3}
      propertyPath: WaitingForOpponentText
      value: 
      objectReference: {fileID: 3169708131535667998}
    - target: {fileID: 2631314861484586385, guid: 04bd56321d179d24cbbeefdd619f0941, type: 3}
      propertyPath: m_Name
      value: LobbyManager
      objectReference: {fileID: 0}
    - target: {fileID: 4417215401542975349, guid: 04bd56321d179d24cbbeefdd619f0941, type: 3}
      propertyPath: m_RootOrder
      value: 3
      objectReference: {fileID: 0}
    - target: {fileID: 4417215401542975349, guid: 04bd56321d179d24cbbeefdd619f0941, type: 3}
      propertyPath: m_LocalPosition.x
      value: 0
      objectReference: {fileID: 0}
    - target: {fileID: 4417215401542975349, guid: 04bd56321d179d24cbbeefdd619f0941, type: 3}
      propertyPath: m_LocalPosition.y
      value: 0
      objectReference: {fileID: 0}
    - target: {fileID: 4417215401542975349, guid: 04bd56321d179d24cbbeefdd619f0941, type: 3}
      propertyPath: m_LocalPosition.z
      value: 0
      objectReference: {fileID: 0}
    - target: {fileID: 4417215401542975349, guid: 04bd56321d179d24cbbeefdd619f0941, type: 3}
      propertyPath: m_LocalRotation.w
      value: 1
      objectReference: {fileID: 0}
    - target: {fileID: 4417215401542975349, guid: 04bd56321d179d24cbbeefdd619f0941, type: 3}
      propertyPath: m_LocalRotation.x
      value: 0
      objectReference: {fileID: 0}
    - target: {fileID: 4417215401542975349, guid: 04bd56321d179d24cbbeefdd619f0941, type: 3}
      propertyPath: m_LocalRotation.y
      value: 0
      objectReference: {fileID: 0}
    - target: {fileID: 4417215401542975349, guid: 04bd56321d179d24cbbeefdd619f0941, type: 3}
      propertyPath: m_LocalRotation.z
      value: 0
      objectReference: {fileID: 0}
    - target: {fileID: 4417215401542975349, guid: 04bd56321d179d24cbbeefdd619f0941, type: 3}
      propertyPath: m_LocalEulerAnglesHint.x
      value: 0
      objectReference: {fileID: 0}
    - target: {fileID: 4417215401542975349, guid: 04bd56321d179d24cbbeefdd619f0941, type: 3}
      propertyPath: m_LocalEulerAnglesHint.y
      value: 0
      objectReference: {fileID: 0}
    - target: {fileID: 4417215401542975349, guid: 04bd56321d179d24cbbeefdd619f0941, type: 3}
      propertyPath: m_LocalEulerAnglesHint.z
      value: 0
      objectReference: {fileID: 0}
    m_RemovedComponents: []
  m_SourcePrefab: {fileID: 100100000, guid: 04bd56321d179d24cbbeefdd619f0941, type: 3}
--- !u!114 &9074618817884897454 stripped
MonoBehaviour:
  m_CorrespondingSourceObject: {fileID: 2283221228306222533, guid: 04bd56321d179d24cbbeefdd619f0941, type: 3}
  m_PrefabInstance: {fileID: 9074618817884897453}
  m_PrefabAsset: {fileID: 0}
  m_GameObject: {fileID: 0}
  m_Enabled: 1
  m_EditorHideFlags: 0
  m_Script: {fileID: 11500000, guid: 6581631c7473c417595d6246fa1c8f8e, type: 3}
  m_Name: 
  m_EditorClassIdentifier: 
