%YAML 1.1
%TAG !u! tag:unity3d.com,2011:
--- !u!114 &11400000
MonoBehaviour:
  m_ObjectHideFlags: 0
  m_CorrespondingSourceObject: {fileID: 0}
  m_PrefabInstance: {fileID: 0}
  m_PrefabAsset: {fileID: 0}
  m_GameObject: {fileID: 0}
  m_Enabled: 1
  m_EditorHideFlags: 0
  m_Script: {fileID: 11500000, guid: d3b8819e1981b2949b100d4d509788f3, type: 3}
  m_Name: Scavenging
  m_EditorClassIdentifier: 
  BoolModifier: 0
  IntModifier: 0
  BuyCostModifier: -1
  CastCostModifier: -1
  PlayCostModifier: -1
  FloatModifier: 0
  StringModifier: 
  TriggerKeywordModifier: 0
  AbilityNamesModifier: 0
  ElementModifier: 0
  TypeModifier: 2
  ComplexAmount: {fileID: 0}
  LinkedAbilities: []
  LinkedCards: []
  PlayerTargetModifier: 0
  CardTargets: 
  CardTargetFilters: {fileID: 0}
  RandomFromTargets: 0
