%YAML 1.1
%TAG !u! tag:unity3d.com,2011:
--- !u!1001 &9042457710720727189
PrefabInstance:
  m_ObjectHideFlags: 0
  serializedVersion: 2
  m_Modification:
    m_TransformParent: {fileID: 0}
    m_Modifications:
    - target: {fileID: 588126076120622800, guid: b4349cf7d61b66c4d8fcc5ff2b0f6e05, type: 3}
      propertyPath: Type
      value: 2
      objectReference: {fileID: 0}
    - target: {fileID: 588126076120622800, guid: b4349cf7d61b66c4d8fcc5ff2b0f6e05, type: 3}
      propertyPath: BuyCost
      value: 6
      objectReference: {fileID: 0}
    - target: {fileID: 588126076120622800, guid: b4349cf7d61b66c4d8fcc5ff2b0f6e05, type: 3}
      propertyPath: Element
      value: 6
      objectReference: {fileID: 0}
    - target: {fileID: 588126076120622800, guid: b4349cf7d61b66c4d8fcc5ff2b0f6e05, type: 3}
      propertyPath: CastCost
      value: 8
      objectReference: {fileID: 0}
    - target: {fileID: 588126076120622800, guid: b4349cf7d61b66c4d8fcc5ff2b0f6e05, type: 3}
      propertyPath: CodeName
      value: Purification
      objectReference: {fileID: 0}
    - target: {fileID: 588126076120622800, guid: b4349cf7d61b66c4d8fcc5ff2b0f6e05, type: 3}
      propertyPath: PlayCost
      value: 6
      objectReference: {fileID: 0}
    - target: {fileID: 588126076120622800, guid: b4349cf7d61b66c4d8fcc5ff2b0f6e05, type: 3}
      propertyPath: Abilities.Array.size
      value: 1
      objectReference: {fileID: 0}
    - target: {fileID: 588126076120622800, guid: b4349cf7d61b66c4d8fcc5ff2b0f6e05, type: 3}
      propertyPath: Abilities.Array.data[0]
      value: 
      objectReference: {fileID: 11400000, guid: 085ba87c864c60c4ca9300c4437d8a2f, type: 2}
    - target: {fileID: 588126076120622800, guid: b4349cf7d61b66c4d8fcc5ff2b0f6e05, type: 3}
      propertyPath: Abilities.Array.data[1]
      value: 
      objectReference: {fileID: 11400000, guid: b6ac88b638509f640a9541afda3174c9, type: 2}
    - target: {fileID: 1961024469518027903, guid: b4349cf7d61b66c4d8fcc5ff2b0f6e05, type: 3}
      propertyPath: m_IsActive
      value: 0
      objectReference: {fileID: 0}
    - target: {fileID: 4272419081315042819, guid: b4349cf7d61b66c4d8fcc5ff2b0f6e05, type: 3}
      propertyPath: m_text
      value: Ancient book
      objectReference: {fileID: 0}
    - target: {fileID: 4715050837644818439, guid: b4349cf7d61b66c4d8fcc5ff2b0f6e05, type: 3}
      propertyPath: m_Materials.Array.data[0]
      value: 
      objectReference: {fileID: 2100000, guid: 6d2991ceedc669949a22e42cc39e09d0, type: 2}
    - target: {fileID: 4858405257681624775, guid: b4349cf7d61b66c4d8fcc5ff2b0f6e05, type: 3}
      propertyPath: m_text
      value: Increase your wisdom by 8.
      objectReference: {fileID: 0}
    - target: {fileID: 5285965443169623352, guid: b4349cf7d61b66c4d8fcc5ff2b0f6e05, type: 3}
      propertyPath: m_RootOrder
      value: 0
      objectReference: {fileID: 0}
    - target: {fileID: 5285965443169623352, guid: b4349cf7d61b66c4d8fcc5ff2b0f6e05, type: 3}
      propertyPath: m_LocalPosition.x
      value: 0
      objectReference: {fileID: 0}
    - target: {fileID: 5285965443169623352, guid: b4349cf7d61b66c4d8fcc5ff2b0f6e05, type: 3}
      propertyPath: m_LocalPosition.y
      value: 0
      objectReference: {fileID: 0}
    - target: {fileID: 5285965443169623352, guid: b4349cf7d61b66c4d8fcc5ff2b0f6e05, type: 3}
      propertyPath: m_LocalPosition.z
      value: 0
      objectReference: {fileID: 0}
    - target: {fileID: 5285965443169623352, guid: b4349cf7d61b66c4d8fcc5ff2b0f6e05, type: 3}
      propertyPath: m_LocalRotation.w
      value: 1
      objectReference: {fileID: 0}
    - target: {fileID: 5285965443169623352, guid: b4349cf7d61b66c4d8fcc5ff2b0f6e05, type: 3}
      propertyPath: m_LocalRotation.x
      value: 0
      objectReference: {fileID: 0}
    - target: {fileID: 5285965443169623352, guid: b4349cf7d61b66c4d8fcc5ff2b0f6e05, type: 3}
      propertyPath: m_LocalRotation.y
      value: 0
      objectReference: {fileID: 0}
    - target: {fileID: 5285965443169623352, guid: b4349cf7d61b66c4d8fcc5ff2b0f6e05, type: 3}
      propertyPath: m_LocalRotation.z
      value: 0
      objectReference: {fileID: 0}
    - target: {fileID: 5285965443169623352, guid: b4349cf7d61b66c4d8fcc5ff2b0f6e05, type: 3}
      propertyPath: m_LocalEulerAnglesHint.x
      value: 0
      objectReference: {fileID: 0}
    - target: {fileID: 5285965443169623352, guid: b4349cf7d61b66c4d8fcc5ff2b0f6e05, type: 3}
      propertyPath: m_LocalEulerAnglesHint.y
      value: 0
      objectReference: {fileID: 0}
    - target: {fileID: 5285965443169623352, guid: b4349cf7d61b66c4d8fcc5ff2b0f6e05, type: 3}
      propertyPath: m_LocalEulerAnglesHint.z
      value: 0
      objectReference: {fileID: 0}
    - target: {fileID: 5285965443169623355, guid: b4349cf7d61b66c4d8fcc5ff2b0f6e05, type: 3}
      propertyPath: m_Name
      value: AncientBook
      objectReference: {fileID: 0}
    - target: {fileID: 5635002994313473751, guid: b4349cf7d61b66c4d8fcc5ff2b0f6e05, type: 3}
      propertyPath: m_Materials.Array.size
      value: 1
      objectReference: {fileID: 0}
    - target: {fileID: 5635002994313473751, guid: b4349cf7d61b66c4d8fcc5ff2b0f6e05, type: 3}
      propertyPath: m_Materials.Array.data[0]
      value: 
      objectReference: {fileID: 2100000, guid: f546514287c390447a32ba53eda4d9c6, type: 2}
    - target: {fileID: 5635002994313473751, guid: b4349cf7d61b66c4d8fcc5ff2b0f6e05, type: 3}
      propertyPath: m_Materials.Array.data[1]
      value: 
      objectReference: {fileID: 2100000, guid: b685a408d2cc1bb4caab7c7bbf386ed8, type: 2}
    - target: {fileID: 6544823998151212918, guid: b4349cf7d61b66c4d8fcc5ff2b0f6e05, type: 3}
      propertyPath: m_text
      value: 6
      objectReference: {fileID: 0}
    - target: {fileID: 7439165908216878433, guid: b4349cf7d61b66c4d8fcc5ff2b0f6e05, type: 3}
      propertyPath: m_text
      value: 6
      objectReference: {fileID: 0}
    - target: {fileID: 8721245863600659323, guid: b4349cf7d61b66c4d8fcc5ff2b0f6e05, type: 3}
      propertyPath: m_text
      value: 8
      objectReference: {fileID: 0}
    m_RemovedComponents: []
  m_SourcePrefab: {fileID: 100100000, guid: b4349cf7d61b66c4d8fcc5ff2b0f6e05, type: 3}
