%YAML 1.1
%TAG !u! tag:unity3d.com,2011:
--- !u!114 &11400000
MonoBehaviour:
  m_ObjectHideFlags: 0
  m_CorrespondingSourceObject: {fileID: 0}
  m_PrefabInstance: {fileID: 0}
  m_PrefabAsset: {fileID: 0}
  m_GameObject: {fileID: 0}
  m_Enabled: 1
  m_EditorHideFlags: 0
  m_Script: {fileID: 11500000, guid: 62b7341d396cec0479604ea57878f14b, type: 3}
  m_Name: BackFire
  m_EditorClassIdentifier: 
  BoolModifier: 0
  IntModifier: 0
  BuyCostModifier: -1
  CastCostModifier: -1
  PlayCostModifier: -1
  FloatModifier: 0
  StringModifier: 
  TriggerKeywordModifier: 0
  AbilityNamesModifier: 0
  ElementModifier: 0
  TypeModifier: 0
  ComplexAmount: {fileID: 11400000, guid: 91d53374bf612344d8155ba80985cff3, type: 2}
  LinkedAbilities: []
  LinkedCards: []
  PlayerTargetModifier: 1
  CardTargets: 01000000
  CardTargetFilters: {fileID: 0}
  RandomFromTargets: 0
  Type: 1
  OperationWithNestedCA: 2
  ClampModifier: 0
