%YAML 1.1
%TAG !u! tag:unity3d.com,2011:
--- !u!114 &11400000
MonoBehaviour:
  m_ObjectHideFlags: 0
  m_CorrespondingSourceObject: {fileID: 0}
  m_PrefabInstance: {fileID: 0}
  m_PrefabAsset: {fileID: 0}
  m_GameObject: {fileID: 0}
  m_Enabled: 1
  m_EditorHideFlags: 0
  m_Script: {fileID: 11500000, guid: e09ec82ceecb8574d840a9e76ee3ba7f, type: 3}
  m_Name: Glide
  m_EditorClassIdentifier: 
  BoolModifier: 0
  IntModifier: 1
  BuyCostModifier: -1
  CastCostModifier: -1
  PlayCostModifier: -1
  FloatModifier: 0
  StringModifier: 
  TriggerKeywordModifier: 0
  AbilityNamesModifier: 0
  ElementModifier: 0
  TypeModifier: 0
  ComplexAmount: {fileID: 0}
  LinkedAbilities: []
  LinkedCards: []
  PlayerTargetModifier: 0
  CardTargets: 
  CardTargetExcluders: {fileID: 0}
  CardTargetFilters: {fileID: 0}
  RandomFromTargets: 0
  RandomFromEachTarget: 0
  AbilityName: 18
  Trigger: 1
  TriggerPlayerTargetModifier: 2
  PlayerTarget: 2
  Condition: {fileID: 11400000, guid: 27ca260724f101749b6c5aa90bba3a7b, type: 2}
  RepeatCounter: 1
